[
    {
        "quiz": "car",
        "name": "Lamborghini Aventador",
        "attributes": [
            {
                "name": "power",
                "value": 769,
                "unit": "PS",
                "maxDisplay": "is the most powerful",
                "minDisplay": "is the least powerful"
            },
            {
                "name": "speed",
                "value": 350,
                "unit": "km/h",
                "maxDisplay": "is the fastest",
                "minDisplay": "is the slowest"
            },
            {
                "name": "number of cylinders",
                "value": 12,
                "unit": "cylinder",
                "maxDisplay": "has the most cylinders",
                "minDisplay": "has the least cylinders"
            },
            {
                "name": "price",
                "value": 800000,
                "unit": "dollars",
                "maxDisplay": "is the most expensive",
                "minDisplay": "is the cheapest"
            }
        ]
    },
    {
        "quiz": "car",
        "name": "McLaren 720S",
        "attributes": [
            {
                "name": "power",
                "value": 720,
                "unit": "PS",
                "maxDisplay": "is the most powerful",
                "minDisplay": "is the least powerful"
            },
            {
                "name": "speed",
                "value": 341,
                "unit": "km/h",
                "maxDisplay": "is the fastest",
                "minDisplay": "is the slowest"
            },
            {
                "name": "number of cylinders",
                "value": 8,
                "unit": "cylinder",
                "maxDisplay": "has the most cylinders",
                "minDisplay": "has the least cylinders"
            },
            {
                "name": "price",
                "value": 500000,
                "unit": "dollars",
                "maxDisplay": "is the most expensive",
                "minDisplay": "is the cheapest"
            }
        ]
    },
    {
        "quiz": "car",
        "name": "Porsche 911",
        "attributes": [
            {
                "name": "power",
                "value": 443,
                "unit": "PS",
                "maxDisplay": "is the most powerful",
                "minDisplay": "is the least powerful"
            },
            {
                "name": "speed",
                "value": 306,
                "unit": "km/h",
                "maxDisplay": "is the fastest",
                "minDisplay": "is the slowest"
            },
            {
                "name": "number of cylinders",
                "value": 6,
                "unit": "cylinder",
                "maxDisplay": "has the most cylinders",
                "minDisplay": "has the least cylinders"
            },
            {
                "name": "price",
                "value": 120000,
                "unit": "dollars",
                "maxDisplay": "is the most expensive",
                "minDisplay": "is the cheapest"
            }
        ]
    },
    {
        "quiz": "car",
        "name": "Ferrari 488 GTB",
        "attributes": [
            {
                "name": "power",
                "value": 661,
                "unit": "PS",
                "maxDisplay": "is the most powerful",
                "minDisplay": "is the least powerful"
            },
            {
                "name": "speed",
                "value": 329,
                "unit": "km/h",
                "maxDisplay": "is the fastest",
                "minDisplay": "is the slowest"
            },
            {
                "name": "number of cylinders",
                "value": 8,
                "unit": "cylinder",
                "maxDisplay": "has the most cylinders",
                "minDisplay": "has the least cylinders"
            },
            {
                "name": "price",
                "value": 204000,
                "unit": "dollars",
                "maxDisplay": "is the most expensive",
                "minDisplay": "is the cheapest"
            }
        ]
    },
    {
        "quiz": "car",
        "name": "Lamborghini Huracan",
        "attributes": [
            {
                "name": "power",
                "value": 602,
                "unit": "PS",
                "maxDisplay": "is the most powerful",
                "minDisplay": "is the least powerful"
            },
            {
                "name": "speed",
                "value": 325,
                "unit": "km/h",
                "maxDisplay": "is the fastest",
                "minDisplay": "is the slowest"
            },
            {
                "name": "number of cylinders",
                "value": 10,
                "unit": "cylinder",
                "maxDisplay": "has the most cylinders",
                "minDisplay": "has the least cylinders"
            },
            {
                "name": "price",
                "value": 201000,
                "unit": "dollars",
                "maxDisplay": "is the most expensive",
                "minDisplay": "is the cheapest"
            }
        ]
    },
    {
        "quiz": "car",
        "name": "Audi R8",
        "attributes": [
            {
                "name": "power",
                "value": 540,
                "unit": "PS",
                "maxDisplay": "is the most powerful",
                "minDisplay": "is the least powerful"
            },
            {
                "name": "speed",
                "value": 330,
                "unit": "km/h",
                "maxDisplay": "is the fastest",
                "minDisplay": "is the slowest"
            },
            {
                "name": "number of cylinders",
                "value": 10,
                "unit": "cylinder",
                "maxDisplay": "has the most cylinders",
                "minDisplay": "has the least cylinders"
            },
            {
                "name": "price",
                "value": 180000,
                "unit": "dollars",
                "maxDisplay": "is the most expensive",
                "minDisplay": "is the cheapest"
            }
        ]
    },
    {
        "quiz": "car",
        "name": "Aston Martin Vantage",
        "attributes": [
            {
                "name": "power",
                "value": 503,
                "unit": "PS",
                "maxDisplay": "is the most powerful",
                "minDisplay": "is the least powerful"
            },
            {
                "name": "speed",
                "value": 312,
                "unit": "km/h",
                "maxDisplay": "is the fastest",
                "minDisplay": "is the slowest"
            },
            {
                "name": "number of cylinders",
                "value": 8,
                "unit": "cylinder",
                "maxDisplay": "has the most cylinders",
                "minDisplay": "has the least cylinders"
            },
            {
                "name": "price",
                "value": 148000,
                "unit": "dollars",
                "maxDisplay": "is the most expensive",
                "minDisplay": "is the cheapest"
            }
        ]
    },
    {
        "quiz": "car",
        "name": "Ford Mustang GT",
        "attributes": [
            {
                "name": "power",
                "value": 460,
                "unit": "PS",
                "maxDisplay": "is the most powerful",
                "minDisplay": "is the least powerful"
            },
            {
                "name": "speed",
                "value": 249,
                "unit": "km/h",
                "maxDisplay": "is the fastest",
                "minDisplay": "is the slowest"
            },
            {
                "name": "number of cylinders",
                "value": 8,
                "unit": "cylinder",
                "maxDisplay": "has the most cylinders",
                "minDisplay": "has the least cylinders"
            },
            {
                "name": "price",
                "value": 40000,
                "unit": "dollars",
                "maxDisplay": "is the most expensive",
                "minDisplay": "is the cheapest"
            }
        ]
    },
    {
        "quiz": "car",
        "name": "Mercedes-AMG GT",
        "attributes": [
            {
                "name": "power",
                "value": 469,
                "unit": "PS",
                "maxDisplay": "is the most powerful",
                "minDisplay": "is the least powerful"
            },
            {
                "name": "speed",
                "value": 314,
                "unit": "km/h",
                "maxDisplay": "is the fastest",
                "minDisplay": "is the slowest"
            },
            {
                "name": "number of cylinders",
                "value": 8,
                "unit": "cylinder",
                "maxDisplay": "has the most cylinders",
                "minDisplay": "has the least cylinders"
            },
            {
                "name": "price",
                "value": 100000,
                "unit": "dollars",
                "maxDisplay": "is the most expensive",
                "minDisplay": "is the cheapest"
            }
        ]
    },
    {
        "quiz": "car",
        "name": "Ferrari LaFerrari",
        "attributes": [
            {
                "name": "power",
                "value": 950,
                "unit": "PS",
                "maxDisplay": "is the most powerful",
                "minDisplay": "is the least powerful"
            },
            {
                "name": "speed",
                "value": 350,
                "unit": "km/h",
                "maxDisplay": "is the fastest",
                "minDisplay": "is the slowest"
            },
            {
                "name": "number of cylinders",
                "value": 12,
                "unit": "cylinder",
                "maxDisplay": "has the most cylinders",
                "minDisplay": "has the least cylinders"
            },
            {
                "name": "price",
                "value": 2000000,
                "unit": "dollars",
                "maxDisplay": "is the most expensive",
                "minDisplay": "is the cheapest"
            }
        ]
    },
    {
        "quiz": "car",
        "name": "Bugatti Veyron",
        "attributes": [
            {
                "name": "power",
                "value": 1200,
                "unit": "PS",
                "maxDisplay": "is the most powerful",
                "minDisplay": "is the least powerful"
            },
            {
                "name": "speed",
                "value": 408,
                "unit": "km/h",
                "maxDisplay": "is the fastest",
                "minDisplay": "is the slowest"
            },
            {
                "name": "number of cylinders",
                "value": 16,
                "unit": "cylinder",
                "maxDisplay": "has the most cylinders",
                "minDisplay": "has the least cylinders"
            },
            {
                "name": "price",
                "value": 1900000,
                "unit": "dollars",
                "maxDisplay": "is the most expensive",
                "minDisplay": "is the cheapest"
            }
        ]
    },
    {
        "quiz": "car",
        "name": "Koenigsegg Agera R",
        "attributes": [
            {
                "name": "power",
                "value": 1140,
                "unit": "439",
                "maxDisplay": "is the most powerful",
                "minDisplay": "is the least powerful"
            },
            {
                "name": "speed",
                "value": 80,
                "unit": "km/h",
                "maxDisplay": "is the fastest",
                "minDisplay": "is the slowest"
            },
            {
                "name": "number of cylinders",
                "value": 5,
                "unit": "cylinder",
                "maxDisplay": "has the most cylinders",
                "minDisplay": "has the least cylinders"
            },
            {
                "name": "price",
                "value": 1500000,
                "unit": "dollars",
                "maxDisplay": "is the most expensive",
                "minDisplay": "is the cheapest"
            }
        ]
    },
    {
        "quiz": "car",
        "name": "Pagani Huayra",
        "attributes": [
            {
                "name": "power",
                "value": 720,
                "unit": "PS",
                "maxDisplay": "is the most powerful",
                "minDisplay": "is the least powerful"
            },
            {
                "name": "speed",
                "value": 370,
                "unit": "km/h",
                "maxDisplay": "is the fastest",
                "minDisplay": "is the slowest"
            },
            {
                "name": "number of cylinders",
                "value": 12,
                "unit": "cylinder",
                "maxDisplay": "has the most cylinders",
                "minDisplay": "has the least cylinders"
            },
            {
                "name": "price",
                "value": 2400000,
                "unit": "dollars",
                "maxDisplay": "is the most expensive",
                "minDisplay": "is the cheapest"
            }
        ]
    },
    {
        "quiz": "car",
        "name": "Lamborghini Veneno",
        "attributes": [
            {
                "name": "power",
                "value": 750,
                "unit": "PS",
                "maxDisplay": "is the most powerful",
                "minDisplay": "is the least powerful"
            },
            {
                "name": "speed",
                "value": 355,
                "unit": "km/h",
                "maxDisplay": "is the fastest",
                "minDisplay": "is the slowest"
            },
            {
                "name": "number of cylinders",
                "value": 12,
                "unit": "cylinder",
                "maxDisplay": "has the most cylinders",
                "minDisplay": "has the least cylinders"
            },
            {
                "name": "price",
                "value": 11000000,
                "unit": "dollars",
                "maxDisplay": "is the most expensive",
                "minDisplay": "is the cheapest"
            }
        ]
    },
    {
        "quiz": "car",
        "name": "Koenigseeg Jesko",
        "attributes": [
            {
                "name": "power",
                "value": 1600,
                "unit": "PS",
                "maxDisplay": "is the most powerful",
                "minDisplay": "is the least powerful"
            },
            {
                "name": "speed",
                "value": 480,
                "unit": "km/h",
                "maxDisplay": "is the fastest",
                "minDisplay": "is the slowest"
            },
            {
                "name": "number of cylinders",
                "value": 5,
                "unit": "cylinder",
                "maxDisplay": "has the most cylinders",
                "minDisplay": "has the least cylinders"
            },
            {
                "name": "price",
                "value": 3400000,
                "unit": "dollars",
                "maxDisplay": "is the most expensive",
                "minDisplay": "is the cheapest"
            }
        ]
    },
    {
        "quiz": "car",
        "name": "Bugatti Chiron",
        "attributes": [
            {
                "name": "power",
                "value": 1500,
                "unit": "PS",
                "maxDisplay": "is the most powerful",
                "minDisplay": "is the least powerful"
            },
            {
                "name": "speed",
                "value": 420,
                "unit": "km/h",
                "maxDisplay": "is the fastest",
                "minDisplay": "is the slowest"
            },
            {
                "name": "number of cylinders",
                "value": 8,
                "unit": "cylinder",
                "maxDisplay": "has the most cylinders",
                "minDisplay": "has the least cylinders"
            },
            {
                "name": "price",
                "value": 2900000,
                "unit": "dollars",
                "maxDisplay": "is the most expensive",
                "minDisplay": "is the cheapest"
            }
        ]
    }
]